Question_1/cpu_simulation.vcd
$date
	Tue Mar 25 20:06:26 2025
$end
$version
	Icarus Verilog
$end
$timescale
	1ns
$end
$scope module tb_riscv_sc $end
$var reg 1 ! clk $end
$var reg 1 " start $end
$scope module riscv_DUT $end
$var wire 1 ! clk $end
$var wire 1 " start $end
$var wire 1 # zero $end
$var wire 32 $ writeData [31:0] $end
$var wire 1 % regWrite $end
$var wire 32 & readData2 [31:0] $end
$var wire 32 ' readData1 [31:0] $end
$var wire 32 ( pc_sum [31:0] $end
$var wire 32 ) pc_o [31:0] $end
$var wire 32 * pc_i [31:0] $end
$var wire 1 + memtoReg $end
$var wire 1 , memWrite $end
$var wire 1 - memRead $end
$var wire 32 . load_data [31:0] $end
$var wire 32 / imm [31:0] $end
$var wire 32 0 i_inst [31:0] $end
$var wire 1 1 branch $end
$var wire 32 2 b_sum [31:0] $end
$var wire 4 3 Aluctl [3:0] $end
$var wire 1 4 ALUSrc $end
$var wire 32 5 ALUOut [31:0] $end
$var wire 2 6 ALUOp [1:0] $end
$var wire 32 7 ALUData2 [31:0] $end
$scope module m_ALU $end
$var wire 1 # zero $end
$var wire 32 8 B [31:0] $end
$var wire 4 9 ALUCtl [3:0] $end
$var wire 32 : A [31:0] $end
$var reg 32 ; ALUOut [31:0] $end
$upscope $end
$scope module m_ALUCtrl $end
$var wire 3 < funct3 [2:0] $end
$var wire 1 = funct7 $end
$var wire 2 > ALUOp [1:0] $end
$var reg 4 ? ALUCtl [3:0] $end
$upscope $end
$scope module m_Adder_1 $end
$var wire 32 @ sum [31:0] $end
$var wire 32 A b [31:0] $end
$var wire 32 B a [31:0] $end
$upscope $end
$scope module m_Adder_2 $end
$var wire 32 C b [31:0] $end
$var wire 32 D sum [31:0] $end
$var wire 32 E a [31:0] $end
$upscope $end
$scope module m_Control $end
$var wire 7 F opcode [6:0] $end
$var reg 2 G ALUOp [1:0] $end
$var reg 1 4 ALUSrc $end
$var reg 1 1 branch $end
$var reg 1 - memRead $end
$var reg 1 , memWrite $end
$var reg 1 + memtoReg $end
$var reg 1 % regWrite $end
$upscope $end
$scope module m_DataMemory $end
$var wire 32 H address [31:0] $end
$var wire 1 ! clk $end
$var wire 1 - memRead $end
$var wire 1 , memWrite $end
$var wire 1 " rst $end
$var wire 32 I writeData [31:0] $end
$var reg 32 J readData [31:0] $end
$upscope $end
$scope module m_ImmGen $end
$var wire 7 K opcode [6:0] $end
$var wire 32 L inst [31:0] $end
$var reg 32 M imm [31:0] $end
$upscope $end
$scope module m_InstMem $end
$var wire 32 N readAddr [31:0] $end
$var wire 32 O inst [31:0] $end
$upscope $end
$scope module m_Mux_ALU $end
$var wire 32 P s1 [31:0] $end
$var wire 1 4 sel $end
$var wire 32 Q s0 [31:0] $end
$var wire 32 R out [31:0] $end
$upscope $end
$scope module m_Mux_PC $end
$var wire 32 S s0 [31:0] $end
$var wire 32 T s1 [31:0] $end
$var wire 1 U sel $end
$var wire 32 V out [31:0] $end
$upscope $end
$scope module m_Mux_WriteData $end
$var wire 32 W s0 [31:0] $end
$var wire 32 X s1 [31:0] $end
$var wire 1 + sel $end
$var wire 32 Y out [31:0] $end
$upscope $end
$scope module m_PC $end
$var wire 1 ! clk $end
$var wire 32 Z pc_i [31:0] $end
$var wire 1 " rst $end
$var reg 32 [ pc_o [31:0] $end
$upscope $end
$scope module m_Register $end
$var wire 1 ! clk $end
$var wire 5 \ readReg1 [4:0] $end
$var wire 5 ] readReg2 [4:0] $end
$var wire 1 % regWrite $end
$var wire 1 " rst $end
$var wire 32 ^ writeData [31:0] $end
$var wire 5 _ writeReg [4:0] $end
$var wire 32 ` readData2 [31:0] $end
$var wire 32 a readData1 [31:0] $end
$upscope $end
$upscope $end
$upscope $end
$enddefinitions $end
#0
$dumpvars
bx a
bx `
bx _
bx ^
bx ]
bx \
bx [
bx Z
bx Y
bx X
bx W
bx V
xU
bx T
bx S
bx R
bx Q
bx P
bx O
bx N
bx M
bx L
bx K
bx J
bx I
bx H
bx G
bx F
bx E
bx D
b100 C
bx B
bx A
bx @
bx ?
bx >
x=
bx <
bx ;
bx :
bx 9
bx 8
bx 7
bx 6
bx 5
x4
bx 3
bx 2
x1
bx 0
bx /
bx .
x-
x,
x+
bx *
bx )
bx (
bx '
bx &
x%
bx $
x#
0"
0!
$end
#5
b100 *
b100 V
b100 Z
b10100011 5
b10100011 ;
b10100011 H
b10100011 X
0#
b10100011 7
b10100011 8
b10100011 R
b0 $
b0 Y
b0 ^
0U
b10100011 2
b10100011 @
b10100011 T
b10100011 /
b10100011 A
b10100011 M
b10100011 P
b0 3
b0 9
b0 ?
b0 &
b0 I
b0 Q
b0 `
b0 '
b0 :
b0 a
1%
14
0,
b10 6
b10 >
b10 G
0+
0-
01
b10011 K
b0 <
0=
b1000 _
b11 ]
b0 \
b10011 F
b1010001100000000010000010011 0
b1010001100000000010000010011 L
b1010001100000000010000010011 O
b0 .
b0 J
b0 W
b100 (
b100 D
b100 S
b0 )
b0 B
b0 E
b0 N
b0 [
1!
#10
0!
1"
#15
b10000100 5
b10000100 ;
b10000100 H
b10000100 X
b1 3
b1 9
b1 ?
b10000000 '
b10000000 :
b10000000 a
b11111111111111111111111111111100 7
b11111111111111111111111111111100 8
b11111111111111111111111111111100 R
1=
b10 _
b11100 ]
b10 \
b11111111111111111111111111111100 /
b11111111111111111111111111111100 A
b11111111111111111111111111111100 M
b11111111111111111111111111111100 P
b11111111110000010000000100010011 0
b11111111110000010000000100010011 L
b11111111110000010000000100010011 O
b1000 *
b1000 V
b1000 Z
b1000 (
b1000 D
b1000 S
b0 2
b0 @
b0 T
b100 )
b100 B
b100 E
b100 N
b100 [
1!
#20
0!
#25
1#
b0 3
b0 9
b0 ?
0%
1,
b0 6
b0 >
b0 G
b0 7
b0 8
b0 R
b100011 K
b10 <
0=
b0 _
b1000 ]
b100011 F
b0 /
b0 A
b0 M
b0 P
b0 5
b0 ;
b0 H
b0 X
b100000010010000000100011 0
b100000010010000000100011 L
b100000010010000000100011 O
b1100 *
b1100 V
b1100 Z
b0 '
b0 :
b0 a
b1100 (
b1100 D
b1100 S
b1000 2
b1000 @
b1000 T
b1000 )
b1000 B
b1000 E
b1000 N
b1000 [
1!
#30
0!
#35
b0 5
b0 ;
b0 H
b0 X
1%
04
0,
b10 6
b10 >
b10 G
1#
b0 7
b0 8
b0 R
b110011 K
b0 <
b1000 _
b0 ]
b0 \
b110011 F
b1000 /
b1000 A
b1000 M
b1000 P
b10000110011 0
b10000110011 L
b10000110011 O
b10000 *
b10000 V
b10000 Z
b10000 (
b10000 D
b10000 S
b10100 2
b10100 @
b10100 T
b1100 )
b1100 B
b1100 E
b1100 N
b1100 [
1!
#40
0!
#45
b0 /
b0 A
b0 M
b0 P
14
b10011 K
b101 _
b10011 F
b1010010011 0
b1010010011 L
b1010010011 O
b10100 *
b10100 V
b10100 Z
b10100 (
b10100 D
b10100 S
b10000 2
b10000 @
b10000 T
b10000 )
b10000 B
b10000 E
b10000 N
b10000 [
1!
#50
0!
#55
b10 3
b10 9
b10 ?
0#
b111 7
b111 8
b111 R
b10 <
b110 _
b111 ]
b101 \
b111 /
b111 A
b111 M
b111 P
b11100101010001100010011 0
b11100101010001100010011 L
b11100101010001100010011 O
b11000 *
b11000 V
b11000 Z
b11000 (
b11000 D
b11000 S
b11011 2
b11011 @
b11011 T
b10100 )
b10100 B
b10100 E
b10100 N
b10100 [
1!
#60
0!
#65
1U
b1 3
b1 9
b1 ?
0%
04
b1 6
b1 >
b1 G
11
1#
b0 7
b0 8
b0 R
b1100011 K
b0 <
b1100 _
b0 ]
b110 \
b1100011 F
b110 /
b110 A
b110 M
b110 P
b110000011001100011 0
b110000011001100011 L
b110000011001100011 O
b11110 *
b11110 V
b11110 Z
b11100 (
b11100 D
b11100 S
b11110 2
b11110 @
b11110 T
b11000 )
b11000 B
b11000 E
b11000 N
b11000 [
1!
#70
0!
#75
0U
b0 3
b0 9
b0 ?
b0 6
b0 >
b0 G
01
b0 K
b111 <
b11100 _
b1001 ]
b111 \
b0 F
b1111111111111111111100000011110 /
b1111111111111111111100000011110 A
b1111111111111111111100000011110 M
b1111111111111111111100000011110 P
b10000010100100111111111000000000 0
b10000010100100111111111000000000 L
b10000010100100111111111000000000 O
b100010 *
b100010 V
b100010 Z
b100010 (
b100010 D
b100010 S
b1111111111111111111100000111100 2
b1111111111111111111100000111100 @
b1111111111111111111100000111100 T
b11110 )
b11110 B
b11110 E
b11110 N
b11110 [
1!
#80
0!
#85
b10100001 5
b10100001 ;
b10100001 H
b10100001 X
0#
b10100001 7
b10100001 8
b10100001 R
b10100001 /
b10100001 A
b10100001 M
b10100001 P
14
1,
b100011 K
b0 <
b1 _
b1110 ]
b110 \
b100011 F
b1010111000110000000010100011 0
b1010111000110000000010100011 L
b1010111000110000000010100011 O
b100110 *
b100110 V
b100110 Z
b100110 (
b100110 D
b100110 S
b11000011 2
b11000011 @
b11000011 T
b100010 )
b100010 B
b100010 E
b100010 N
b100010 [
1!
#90
0!
#95
1#
b0 5
b0 ;
b0 H
b0 X
04
0,
b0 7
b0 8
b0 R
b1 K
1=
b0 _
b10001 ]
b1 F
b11000100000 /
b11000100000 A
b11000100000 M
b11000100000 P
b1100011000100110000000000000001 0
b1100011000100110000000000000001 L
b1100011000100110000000000000001 O
b101010 *
b101010 V
b101010 Z
b101010 (
b101010 D
b101010 S
b11001000110 2
b11001000110 @
b11001000110 T
b100110 )
b100110 B
b100110 E
b100110 N
b100110 [
1!
#100
0!
#105
b1000001 K
0=
b0 ]
b1000001 F
b100100000000110000000001000001 0
b100100000000110000000001000001 L
b100100000000110000000001000001 O
b101110 *
b101110 V
b101110 Z
b101110 (
b101110 D
b101110 S
b11001001010 2
b11001001010 @
b11001001010 T
b101010 )
b101010 B
b101010 E
b101010 N
b101010 [
1!
#110
0!
#115
b0 K
b10001 ]
b0 F
b1000100110000000000000000 0
b1000100110000000000000000 L
b1000100110000000000000000 O
b110010 *
b110010 V
b110010 Z
b110010 (
b110010 D
b110010 S
b11001001110 2
b11001001110 @
b11001001110 T
b101110 )
b101110 B
b101110 E
b101110 N
b101110 [
1!
#120
0!
#125
bx 5
bx ;
bx H
bx X
x#
bx '
bx :
bx a
bx K
bx <
bx _
b0 ]
b0x \
bx F
b0xxxxxxxxxxxxxxxx 0
b0xxxxxxxxxxxxxxxx L
b0xxxxxxxxxxxxxxxx O
b110110 *
b110110 V
b110110 Z
b110110 (
b110110 D
b110110 S
b11001010010 2
b11001010010 @
b11001010010 T
b110010 )
b110010 B
b110010 E
b110010 N
b110010 [
1!
#130
0!
#135
bx 7
bx 8
bx R
bx &
bx I
bx Q
bx `
x=
bx ]
bx \
bx 0
bx L
bx O
b111010 *
b111010 V
b111010 Z
b111010 (
b111010 D
b111010 S
b11001010110 2
b11001010110 @
b11001010110 T
b110110 )
b110110 B
b110110 E
b110110 N
b110110 [
1!
#140
0!
#145
b111110 *
b111110 V
b111110 Z
b111110 (
b111110 D
b111110 S
b11001011010 2
b11001011010 @
b11001011010 T
b111010 )
b111010 B
b111010 E
b111010 N
b111010 [
1!
#150
0!
#155
b1000010 *
b1000010 V
b1000010 Z
b1000010 (
b1000010 D
b1000010 S
b11001011110 2
b11001011110 @
b11001011110 T
b111110 )
b111110 B
b111110 E
b111110 N
b111110 [
1!
#160
0!
#165
b1000110 *
b1000110 V
b1000110 Z
b1000110 (
b1000110 D
b1000110 S
b11001100010 2
b11001100010 @
b11001100010 T
b1000010 )
b1000010 B
b1000010 E
b1000010 N
b1000010 [
1!
#170
0!
#175
b1001010 *
b1001010 V
b1001010 Z
b1001010 (
b1001010 D
b1001010 S
b11001100110 2
b11001100110 @
b11001100110 T
b1000110 )
b1000110 B
b1000110 E
b1000110 N
b1000110 [
1!
#180
0!
#185
b1001110 *
b1001110 V
b1001110 Z
b1001110 (
b1001110 D
b1001110 S
b11001101010 2
b11001101010 @
b11001101010 T
b1001010 )
b1001010 B
b1001010 E
b1001010 N
b1001010 [
1!
#190
0!
#195
b1010010 *
b1010010 V
b1010010 Z
b1010010 (
b1010010 D
b1010010 S
b11001101110 2
b11001101110 @
b11001101110 T
b1001110 )
b1001110 B
b1001110 E
b1001110 N
b1001110 [
1!
#200
0!
#205
b1010110 *
b1010110 V
b1010110 Z
b1010110 (
b1010110 D
b1010110 S
b11001110010 2
b11001110010 @
b11001110010 T
b1010010 )
b1010010 B
b1010010 E
b1010010 N
b1010010 [
1!
#210
0!
#215
b1011010 *
b1011010 V
b1011010 Z
b1011010 (
b1011010 D
b1011010 S
b11001110110 2
b11001110110 @
b11001110110 T
b1010110 )
b1010110 B
b1010110 E
b1010110 N
b1010110 [
1!
#220
0!
#225
b1011110 *
b1011110 V
b1011110 Z
b1011110 (
b1011110 D
b1011110 S
b11001111010 2
b11001111010 @
b11001111010 T
b1011010 )
b1011010 B
b1011010 E
b1011010 N
b1011010 [
1!
#230
0!
#235
b1100010 *
b1100010 V
b1100010 Z
b1100010 (
b1100010 D
b1100010 S
b11001111110 2
b11001111110 @
b11001111110 T
b1011110 )
b1011110 B
b1011110 E
b1011110 N
b1011110 [
1!
#240
0!
#245
b1100110 *
b1100110 V
b1100110 Z
b1100110 (
b1100110 D
b1100110 S
b11010000010 2
b11010000010 @
b11010000010 T
b1100010 )
b1100010 B
b1100010 E
b1100010 N
b1100010 [
1!
#250
0!
#255
b1101010 *
b1101010 V
b1101010 Z
b1101010 (
b1101010 D
b1101010 S
b11010000110 2
b11010000110 @
b11010000110 T
b1100110 )
b1100110 B
b1100110 E
b1100110 N
b1100110 [
1!
#260
0!
#265
b1101110 *
b1101110 V
b1101110 Z
b1101110 (
b1101110 D
b1101110 S
b11010001010 2
b11010001010 @
b11010001010 T
b1101010 )
b1101010 B
b1101010 E
b1101010 N
b1101010 [
1!
#270
0!
#275
b1110010 *
b1110010 V
b1110010 Z
b1110010 (
b1110010 D
b1110010 S
b11010001110 2
b11010001110 @
b11010001110 T
b1101110 )
b1101110 B
b1101110 E
b1101110 N
b1101110 [
1!
#280
0!
#285
b1110110 *
b1110110 V
b1110110 Z
b1110110 (
b1110110 D
b1110110 S
b11010010010 2
b11010010010 @
b11010010010 T
b1110010 )
b1110010 B
b1110010 E
b1110010 N
b1110010 [
1!
#290
0!
#295
b1111010 *
b1111010 V
b1111010 Z
b1111010 (
b1111010 D
b1111010 S
b11010010110 2
b11010010110 @
b11010010110 T
b1110110 )
b1110110 B
b1110110 E
b1110110 N
b1110110 [
1!
#300
0!
#305
b1111110 *
b1111110 V
b1111110 Z
b1111110 (
b1111110 D
b1111110 S
b11010011010 2
b11010011010 @
b11010011010 T
b1111010 )
b1111010 B
b1111010 E
b1111010 N
b1111010 [
1!
#310
0!
#315
b10000010 *
b10000010 V
b10000010 Z
b10000010 (
b10000010 D
b10000010 S
b11010011110 2
b11010011110 @
b11010011110 T
b1111110 )
b1111110 B
b1111110 E
b1111110 N
b1111110 [
1!
#320
0!
#325
b0 5
b0 ;
b0 H
b0 X
1#
b0 7
b0 8
b0 R
b0 &
b0 I
b0 Q
b0 `
b0 '
b0 :
b0 a
b0 K
b0 <
0=
b0 _
b0 ]
b0 \
b0 F
b0 0
b0 L
b0 O
b10000110 *
b10000110 V
b10000110 Z
b10000110 (
b10000110 D
b10000110 S
b11010100010 2
b11010100010 @
b11010100010 T
b10000010 )
b10000010 B
b10000010 E
b10000010 N
b10000010 [
1!
#330
0!
#335
b10001010 *
b10001010 V
b10001010 Z
b10001010 (
b10001010 D
b10001010 S
b11010100110 2
b11010100110 @
b11010100110 T
b10000110 )
b10000110 B
b10000110 E
b10000110 N
b10000110 [
1!
#340
0!
#345
b10001110 *
b10001110 V
b10001110 Z
b10001110 (
b10001110 D
b10001110 S
b11010101010 2
b11010101010 @
b11010101010 T
b10001010 )
b10001010 B
b10001010 E
b10001010 N
b10001010 [
1!
#350
0!
#355
b10010010 *
b10010010 V
b10010010 Z
b10010010 (
b10010010 D
b10010010 S
b11010101110 2
b11010101110 @
b11010101110 T
b10001110 )
b10001110 B
b10001110 E
b10001110 N
b10001110 [
1!
#360
0!
#365
b10010110 *
b10010110 V
b10010110 Z
b10010110 (
b10010110 D
b10010110 S
b11010110010 2
b11010110010 @
b11010110010 T
b10010010 )
b10010010 B
b10010010 E
b10010010 N
b10010010 [
1!
#370
0!
#375
b10011010 *
b10011010 V
b10011010 Z
b10011010 (
b10011010 D
b10011010 S
b11010110110 2
b11010110110 @
b11010110110 T
b10010110 )
b10010110 B
b10010110 E
b10010110 N
b10010110 [
1!
#380
0!
#385
b10011110 *
b10011110 V
b10011110 Z
b10011110 (
b10011110 D
b10011110 S
b11010111010 2
b11010111010 @
b11010111010 T
b10011010 )
b10011010 B
b10011010 E
b10011010 N
b10011010 [
1!
#390
0!
#395
b10100010 *
b10100010 V
b10100010 Z
b10100010 (
b10100010 D
b10100010 S
b11010111110 2
b11010111110 @
b11010111110 T
b10011110 )
b10011110 B
b10011110 E
b10011110 N
b10011110 [
1!
#400
0!
#405
b10100110 *
b10100110 V
b10100110 Z
b10100110 (
b10100110 D
b10100110 S
b11011000010 2
b11011000010 @
b11011000010 T
b10100010 )
b10100010 B
b10100010 E
b10100010 N
b10100010 [
1!
#410
0!
#415
b10101010 *
b10101010 V
b10101010 Z
b10101010 (
b10101010 D
b10101010 S
b11011000110 2
b11011000110 @
b11011000110 T
b10100110 )
b10100110 B
b10100110 E
b10100110 N
b10100110 [
1!
#420
0!
#425
b10101110 *
b10101110 V
b10101110 Z
b10101110 (
b10101110 D
b10101110 S
b11011001010 2
b11011001010 @
b11011001010 T
b10101010 )
b10101010 B
b10101010 E
b10101010 N
b10101010 [
1!
#430
0!
#435
b10110010 *
b10110010 V
b10110010 Z
b10110010 (
b10110010 D
b10110010 S
b11011001110 2
b11011001110 @
b11011001110 T
b10101110 )
b10101110 B
b10101110 E
b10101110 N
b10101110 [
1!
#440
0!
#445
b10110110 *
b10110110 V
b10110110 Z
b10110110 (
b10110110 D
b10110110 S
b11011010010 2
b11011010010 @
b11011010010 T
b10110010 )
b10110010 B
b10110010 E
b10110010 N
b10110010 [
1!
#450
0!
#455
b10111010 *
b10111010 V
b10111010 Z
b10111010 (
b10111010 D
b10111010 S
b11011010110 2
b11011010110 @
b11011010110 T
b10110110 )
b10110110 B
b10110110 E
b10110110 N
b10110110 [
1!
#460
0!
#465
b10111110 *
b10111110 V
b10111110 Z
b10111110 (
b10111110 D
b10111110 S
b11011011010 2
b11011011010 @
b11011011010 T
b10111010 )
b10111010 B
b10111010 E
b10111010 N
b10111010 [
1!
#470
0!
#475
b11000010 *
b11000010 V
b11000010 Z
b11000010 (
b11000010 D
b11000010 S
b11011011110 2
b11011011110 @
b11011011110 T
b10111110 )
b10111110 B
b10111110 E
b10111110 N
b10111110 [
1!
#480
0!
#485
b11000110 *
b11000110 V
b11000110 Z
b11000110 (
b11000110 D
b11000110 S
b11011100010 2
b11011100010 @
b11011100010 T
b11000010 )
b11000010 B
b11000010 E
b11000010 N
b11000010 [
1!
#490
0!
#495
b11001010 *
b11001010 V
b11001010 Z
b11001010 (
b11001010 D
b11001010 S
b11011100110 2
b11011100110 @
b11011100110 T
b11000110 )
b11000110 B
b11000110 E
b11000110 N
b11000110 [
1!
#500
0!
#505
b11001110 *
b11001110 V
b11001110 Z
b11001110 (
b11001110 D
b11001110 S
b11011101010 2
b11011101010 @
b11011101010 T
b11001010 )
b11001010 B
b11001010 E
b11001010 N
b11001010 [
1!
#510
0!
#515
b11010010 *
b11010010 V
b11010010 Z
b11010010 (
b11010010 D
b11010010 S
b11011101110 2
b11011101110 @
b11011101110 T
b11001110 )
b11001110 B
b11001110 E
b11001110 N
b11001110 [
1!
#520
0!
#525
b11010110 *
b11010110 V
b11010110 Z
b11010110 (
b11010110 D
b11010110 S
b11011110010 2
b11011110010 @
b11011110010 T
b11010010 )
b11010010 B
b11010010 E
b11010010 N
b11010010 [
1!
#530
0!
#535
b11011010 *
b11011010 V
b11011010 Z
b11011010 (
b11011010 D
b11011010 S
b11011110110 2
b11011110110 @
b11011110110 T
b11010110 )
b11010110 B
b11010110 E
b11010110 N
b11010110 [
1!
#540
0!
#545
b11011110 *
b11011110 V
b11011110 Z
b11011110 (
b11011110 D
b11011110 S
b11011111010 2
b11011111010 @
b11011111010 T
b11011010 )
b11011010 B
b11011010 E
b11011010 N
b11011010 [
1!
#550
0!
#555
b11100010 *
b11100010 V
b11100010 Z
b11100010 (
b11100010 D
b11100010 S
b11011111110 2
b11011111110 @
b11011111110 T
b11011110 )
b11011110 B
b11011110 E
b11011110 N
b11011110 [
1!
#560
0!
#565
b11100110 *
b11100110 V
b11100110 Z
b11100110 (
b11100110 D
b11100110 S
b11100000010 2
b11100000010 @
b11100000010 T
b11100010 )
b11100010 B
b11100010 E
b11100010 N
b11100010 [
1!
#570
0!
#575
b11101010 *
b11101010 V
b11101010 Z
b11101010 (
b11101010 D
b11101010 S
b11100000110 2
b11100000110 @
b11100000110 T
b11100110 )
b11100110 B
b11100110 E
b11100110 N
b11100110 [
1!
#580
0!
#585
b11101110 *
b11101110 V
b11101110 Z
b11101110 (
b11101110 D
b11101110 S
b11100001010 2
b11100001010 @
b11100001010 T
b11101010 )
b11101010 B
b11101010 E
b11101010 N
b11101010 [
1!
#590
0!
#595
b11110010 *
b11110010 V
b11110010 Z
b11110010 (
b11110010 D
b11110010 S
b11100001110 2
b11100001110 @
b11100001110 T
b11101110 )
b11101110 B
b11101110 E
b11101110 N
b11101110 [
1!
#600
0!
#605
b11110110 *
b11110110 V
b11110110 Z
b11110110 (
b11110110 D
b11110110 S
b11100010010 2
b11100010010 @
b11100010010 T
b11110010 )
b11110010 B
b11110010 E
b11110010 N
b11110010 [
1!
#610
0!
#615
b11111010 *
b11111010 V
b11111010 Z
b11111010 (
b11111010 D
b11111010 S
b11100010110 2
b11100010110 @
b11100010110 T
b11110110 )
b11110110 B
b11110110 E
b11110110 N
b11110110 [
1!
#620
0!
#625
b11111110 *
b11111110 V
b11111110 Z
b11111110 (
b11111110 D
b11111110 S
b11100011010 2
b11100011010 @
b11100011010 T
b11111010 )
b11111010 B
b11111010 E
b11111010 N
b11111010 [
1!
#630
0!
#635
b100000010 *
b100000010 V
b100000010 Z
b100000010 (
b100000010 D
b100000010 S
b11100011110 2
b11100011110 @
b11100011110 T
b11111110 )
b11111110 B
b11111110 E
b11111110 N
b11111110 [
1!
#640
0!
#645
b100000110 *
b100000110 V
b100000110 Z
b100000110 (
b100000110 D
b100000110 S
b11100100010 2
b11100100010 @
b11100100010 T
b100000010 )
b100000010 B
b100000010 E
b100000010 N
b100000010 [
1!
#650
0!
#655
b100001010 *
b100001010 V
b100001010 Z
b100001010 (
b100001010 D
b100001010 S
b11100100110 2
b11100100110 @
b11100100110 T
b100000110 )
b100000110 B
b100000110 E
b100000110 N
b100000110 [
1!
#660
0!
#665
b100001110 *
b100001110 V
b100001110 Z
b100001110 (
b100001110 D
b100001110 S
b11100101010 2
b11100101010 @
b11100101010 T
b100001010 )
b100001010 B
b100001010 E
b100001010 N
b100001010 [
1!
#670
0!
#675
b100010010 *
b100010010 V
b100010010 Z
b100010010 (
b100010010 D
b100010010 S
b11100101110 2
b11100101110 @
b11100101110 T
b100001110 )
b100001110 B
b100001110 E
b100001110 N
b100001110 [
1!
#680
0!
#685
b100010110 *
b100010110 V
b100010110 Z
b100010110 (
b100010110 D
b100010110 S
b11100110010 2
b11100110010 @
b11100110010 T
b100010010 )
b100010010 B
b100010010 E
b100010010 N
b100010010 [
1!
#690
0!
#695
b100011010 *
b100011010 V
b100011010 Z
b100011010 (
b100011010 D
b100011010 S
b11100110110 2
b11100110110 @
b11100110110 T
b100010110 )
b100010110 B
b100010110 E
b100010110 N
b100010110 [
1!
#700
0!
#705
b100011110 *
b100011110 V
b100011110 Z
b100011110 (
b100011110 D
b100011110 S
b11100111010 2
b11100111010 @
b11100111010 T
b100011010 )
b100011010 B
b100011010 E
b100011010 N
b100011010 [
1!
#710
0!
#715
b100100010 *
b100100010 V
b100100010 Z
b100100010 (
b100100010 D
b100100010 S
b11100111110 2
b11100111110 @
b11100111110 T
b100011110 )
b100011110 B
b100011110 E
b100011110 N
b100011110 [
1!
#720
0!
#725
b100100110 *
b100100110 V
b100100110 Z
b100100110 (
b100100110 D
b100100110 S
b11101000010 2
b11101000010 @
b11101000010 T
b100100010 )
b100100010 B
b100100010 E
b100100010 N
b100100010 [
1!
#730
0!
#735
b100101010 *
b100101010 V
b100101010 Z
b100101010 (
b100101010 D
b100101010 S
b11101000110 2
b11101000110 @
b11101000110 T
b100100110 )
b100100110 B
b100100110 E
b100100110 N
b100100110 [
1!
#740
0!
#745
b100101110 *
b100101110 V
b100101110 Z
b100101110 (
b100101110 D
b100101110 S
b11101001010 2
b11101001010 @
b11101001010 T
b100101010 )
b100101010 B
b100101010 E
b100101010 N
b100101010 [
1!
#750
0!
#755
b100110010 *
b100110010 V
b100110010 Z
b100110010 (
b100110010 D
b100110010 S
b11101001110 2
b11101001110 @
b11101001110 T
b100101110 )
b100101110 B
b100101110 E
b100101110 N
b100101110 [
1!
#760
0!
#765
b100110110 *
b100110110 V
b100110110 Z
b100110110 (
b100110110 D
b100110110 S
b11101010010 2
b11101010010 @
b11101010010 T
b100110010 )
b100110010 B
b100110010 E
b100110010 N
b100110010 [
1!
#770
0!
#775
b100111010 *
b100111010 V
b100111010 Z
b100111010 (
b100111010 D
b100111010 S
b11101010110 2
b11101010110 @
b11101010110 T
b100110110 )
b100110110 B
b100110110 E
b100110110 N
b100110110 [
1!
#780
0!
#785
b100111110 *
b100111110 V
b100111110 Z
b100111110 (
b100111110 D
b100111110 S
b11101011010 2
b11101011010 @
b11101011010 T
b100111010 )
b100111010 B
b100111010 E
b100111010 N
b100111010 [
1!
#790
0!
#795
b101000010 *
b101000010 V
b101000010 Z
b101000010 (
b101000010 D
b101000010 S
b11101011110 2
b11101011110 @
b11101011110 T
b100111110 )
b100111110 B
b100111110 E
b100111110 N
b100111110 [
1!
#800
0!
#805
b101000110 *
b101000110 V
b101000110 Z
b101000110 (
b101000110 D
b101000110 S
b11101100010 2
b11101100010 @
b11101100010 T
b101000010 )
b101000010 B
b101000010 E
b101000010 N
b101000010 [
1!
#810
0!
#815
b101001010 *
b101001010 V
b101001010 Z
b101001010 (
b101001010 D
b101001010 S
b11101100110 2
b11101100110 @
b11101100110 T
b101000110 )
b101000110 B
b101000110 E
b101000110 N
b101000110 [
1!
#820
0!
#825
b101001110 *
b101001110 V
b101001110 Z
b101001110 (
b101001110 D
b101001110 S
b11101101010 2
b11101101010 @
b11101101010 T
b101001010 )
b101001010 B
b101001010 E
b101001010 N
b101001010 [
1!
#830
0!
#835
b101010010 *
b101010010 V
b101010010 Z
b101010010 (
b101010010 D
b101010010 S
b11101101110 2
b11101101110 @
b11101101110 T
b101001110 )
b101001110 B
b101001110 E
b101001110 N
b101001110 [
1!
#840
0!
#845
b101010110 *
b101010110 V
b101010110 Z
b101010110 (
b101010110 D
b101010110 S
b11101110010 2
b11101110010 @
b11101110010 T
b101010010 )
b101010010 B
b101010010 E
b101010010 N
b101010010 [
1!
#850
0!
#855
b101011010 *
b101011010 V
b101011010 Z
b101011010 (
b101011010 D
b101011010 S
b11101110110 2
b11101110110 @
b11101110110 T
b101010110 )
b101010110 B
b101010110 E
b101010110 N
b101010110 [
1!
#860
0!
#865
b101011110 *
b101011110 V
b101011110 Z
b101011110 (
b101011110 D
b101011110 S
b11101111010 2
b11101111010 @
b11101111010 T
b101011010 )
b101011010 B
b101011010 E
b101011010 N
b101011010 [
1!
#870
0!
#875
b101100010 *
b101100010 V
b101100010 Z
b101100010 (
b101100010 D
b101100010 S
b11101111110 2
b11101111110 @
b11101111110 T
b101011110 )
b101011110 B
b101011110 E
b101011110 N
b101011110 [
1!
#880
0!
#885
b101100110 *
b101100110 V
b101100110 Z
b101100110 (
b101100110 D
b101100110 S
b11110000010 2
b11110000010 @
b11110000010 T
b101100010 )
b101100010 B
b101100010 E
b101100010 N
b101100010 [
1!
#890
0!
#895
b101101010 *
b101101010 V
b101101010 Z
b101101010 (
b101101010 D
b101101010 S
b11110000110 2
b11110000110 @
b11110000110 T
b101100110 )
b101100110 B
b101100110 E
b101100110 N
b101100110 [
1!
#900
0!
#905
b101101110 *
b101101110 V
b101101110 Z
b101101110 (
b101101110 D
b101101110 S
b11110001010 2
b11110001010 @
b11110001010 T
b101101010 )
b101101010 B
b101101010 E
b101101010 N
b101101010 [
1!
#910
0!
#915
b101110010 *
b101110010 V
b101110010 Z
b101110010 (
b101110010 D
b101110010 S
b11110001110 2
b11110001110 @
b11110001110 T
b101101110 )
b101101110 B
b101101110 E
b101101110 N
b101101110 [
1!
#920
0!
#925
b101110110 *
b101110110 V
b101110110 Z
b101110110 (
b101110110 D
b101110110 S
b11110010010 2
b11110010010 @
b11110010010 T
b101110010 )
b101110010 B
b101110010 E
b101110010 N
b101110010 [
1!
#930
0!
#935
b101111010 *
b101111010 V
b101111010 Z
b101111010 (
b101111010 D
b101111010 S
b11110010110 2
b11110010110 @
b11110010110 T
b101110110 )
b101110110 B
b101110110 E
b101110110 N
b101110110 [
1!
#940
0!
#945
b101111110 *
b101111110 V
b101111110 Z
b101111110 (
b101111110 D
b101111110 S
b11110011010 2
b11110011010 @
b11110011010 T
b101111010 )
b101111010 B
b101111010 E
b101111010 N
b101111010 [
1!
#950
0!
#955
b110000010 *
b110000010 V
b110000010 Z
b110000010 (
b110000010 D
b110000010 S
b11110011110 2
b11110011110 @
b11110011110 T
b101111110 )
b101111110 B
b101111110 E
b101111110 N
b101111110 [
1!
#960
0!
