Question_1/cpu_simulation_2.vcd
$date
	Tue Mar 25 22:09:50 2025
$end
$version
	Icarus Verilog
$end
$timescale
	1ns
$end
$scope module tb_riscv_sc $end
$var reg 1 ! clk $end
$var reg 1 " start $end
$scope module riscv_DUT $end
$var wire 1 ! clk $end
$var wire 1 # jump_sel $end
$var wire 1 " start $end
$var wire 1 $ zero $end
$var wire 32 % writeData [31:0] $end
$var wire 1 & regWrite $end
$var wire 32 ' readData2 [31:0] $end
$var wire 32 ( readData1 [31:0] $end
$var wire 32 ) pc_sum [31:0] $end
$var wire 32 * pc_o [31:0] $end
$var wire 32 + pc_i [31:0] $end
$var wire 1 , memtoReg $end
$var wire 1 - memWrite $end
$var wire 1 . memRead $end
$var wire 32 / load_data [31:0] $end
$var wire 32 0 imm [31:0] $end
$var wire 32 1 i_inst [31:0] $end
$var wire 1 2 branch $end
$var wire 32 3 b_sum [31:0] $end
$var wire 4 4 Aluctl [3:0] $end
$var wire 1 5 ALUSrc $end
$var wire 32 6 ALUOut [31:0] $end
$var wire 2 7 ALUOp [1:0] $end
$var wire 32 8 ALUData2 [31:0] $end
$scope module m_ALU $end
$var wire 1 $ zero $end
$var wire 32 9 B [31:0] $end
$var wire 4 : ALUCtl [3:0] $end
$var wire 32 ; A [31:0] $end
$var reg 32 < ALUOut [31:0] $end
$upscope $end
$scope module m_ALUCtrl $end
$var wire 3 = funct3 [2:0] $end
$var wire 1 > funct7 $end
$var wire 2 ? ALUOp [1:0] $end
$var reg 4 @ ALUCtl [3:0] $end
$upscope $end
$scope module m_Adder_1 $end
$var wire 32 A sum [31:0] $end
$var wire 32 B b [31:0] $end
$var wire 32 C a [31:0] $end
$upscope $end
$scope module m_Adder_2 $end
$var wire 32 D b [31:0] $end
$var wire 32 E sum [31:0] $end
$var wire 32 F a [31:0] $end
$upscope $end
$scope module m_Control $end
$var wire 3 G func3 [2:0] $end
$var wire 7 H opcode [6:0] $end
$var reg 2 I ALUOp [1:0] $end
$var reg 1 5 ALUSrc $end
$var reg 1 2 branch $end
$var reg 1 . memRead $end
$var reg 1 - memWrite $end
$var reg 1 , memtoReg $end
$var reg 1 & regWrite $end
$upscope $end
$scope module m_DataMemory $end
$var wire 32 J address [31:0] $end
$var wire 1 ! clk $end
$var wire 1 . memRead $end
$var wire 1 - memWrite $end
$var wire 1 " rst $end
$var wire 32 K writeData [31:0] $end
$var reg 32 L readData [31:0] $end
$upscope $end
$scope module m_ImmGen $end
$var wire 7 M opcode [6:0] $end
$var wire 32 N inst [31:0] $end
$var reg 32 O imm [31:0] $end
$upscope $end
$scope module m_InstMem $end
$var wire 32 P readAddr [31:0] $end
$var wire 32 Q inst [31:0] $end
$upscope $end
$scope module m_Mux_ALU $end
$var wire 32 R s1 [31:0] $end
$var wire 1 5 sel $end
$var wire 32 S s0 [31:0] $end
$var wire 32 T out [31:0] $end
$upscope $end
$scope module m_Mux_PC $end
$var wire 32 U s0 [31:0] $end
$var wire 32 V s1 [31:0] $end
$var wire 1 # sel $end
$var wire 32 W out [31:0] $end
$upscope $end
$scope module m_Mux_WriteData $end
$var wire 32 X s0 [31:0] $end
$var wire 32 Y s1 [31:0] $end
$var wire 1 , sel $end
$var wire 32 Z out [31:0] $end
$upscope $end
$scope module m_PC $end
$var wire 1 ! clk $end
$var wire 32 [ pc_i [31:0] $end
$var wire 1 " rst $end
$var reg 32 \ pc_o [31:0] $end
$upscope $end
$scope module m_Register $end
$var wire 1 ! clk $end
$var wire 5 ] readReg1 [4:0] $end
$var wire 5 ^ readReg2 [4:0] $end
$var wire 1 & regWrite $end
$var wire 1 " rst $end
$var wire 32 _ writeData [31:0] $end
$var wire 5 ` writeReg [4:0] $end
$var wire 32 a readData2 [31:0] $end
$var wire 32 b readData1 [31:0] $end
$upscope $end
$upscope $end
$upscope $end
$enddefinitions $end
#0
$dumpvars
bx b
bx a
bx `
bx _
bx ^
bx ]
bx \
bx [
bx Z
bx Y
bx X
bx W
bx V
bx U
bx T
bx S
bx R
bx Q
bx P
bx O
bx N
bx M
bx L
bx K
bx J
bx I
bx H
bx G
bx F
bx E
b100 D
bx C
bx B
bx A
bx @
bx ?
x>
bx =
bx <
bx ;
bx :
bx 9
bx 8
bx 7
bx 6
x5
bx 4
bx 3
x2
bx 1
bx 0
bx /
x.
x-
x,
bx +
bx *
bx )
bx (
bx '
x&
bx %
x$
x#
0"
0!
$end
#5
b10100011 %
b10100011 Z
b10100011 _
b100 +
b100 W
b100 [
b10100011 6
b10100011 <
b10100011 J
b10100011 X
0$
b10100011 8
b10100011 9
b10100011 T
0#
b10100011 3
b10100011 A
b10100011 V
b10100011 0
b10100011 B
b10100011 O
b10100011 R
b0 4
b0 :
b0 @
b0 '
b0 K
b0 S
b0 a
b0 (
b0 ;
b0 b
1&
15
0-
0,
0.
02
b0 7
b0 ?
b0 I
b10011 M
b0 =
0>
b1000 `
b11 ^
b0 ]
b0 G
b10011 H
b1010001100000000010000010011 1
b1010001100000000010000010011 N
b1010001100000000010000010011 Q
b0 /
b0 L
b0 Y
b100 )
b100 E
b100 U
b0 *
b0 C
b0 F
b0 P
b0 \
1!
#10
0!
1"
#15
b1111100 %
b1111100 Z
b1111100 _
b1111100 6
b1111100 <
b1111100 J
b1111100 X
b10000000 (
b10000000 ;
b10000000 b
b11111111111111111111111111111100 8
b11111111111111111111111111111100 9
b11111111111111111111111111111100 T
1>
b10 `
b11100 ^
b10 ]
b11111111111111111111111111111100 0
b11111111111111111111111111111100 B
b11111111111111111111111111111100 O
b11111111111111111111111111111100 R
b11111111110000010000000100010011 1
b11111111110000010000000100010011 N
b11111111110000010000000100010011 Q
b1000 +
b1000 W
b1000 [
b1000 )
b1000 E
b1000 U
b0 3
b0 A
b0 V
b100 *
b100 C
b100 F
b100 P
b100 \
1!
#20
0!
#25
b10100011 '
b10100011 K
b10100011 S
b10100011 a
0&
1-
b0 8
b0 9
b0 T
b1111100 %
b1111100 Z
b1111100 _
b100011 M
b10 =
0>
b0 `
b1000 ^
b10 G
b100011 H
b0 0
b0 B
b0 O
b0 R
b1111100 6
b1111100 <
b1111100 J
b1111100 X
b100000010010000000100011 1
b100000010010000000100011 N
b100000010010000000100011 Q
b1100 +
b1100 W
b1100 [
b1111100 (
b1111100 ;
b1111100 b
b1100 )
b1100 E
b1100 U
b1000 3
b1000 A
b1000 V
b1000 *
b1000 C
b1000 F
b1000 P
b1000 \
1!
#30
0!
#35
b0 %
b0 Z
b0 _
1$
b0 6
b0 <
b0 J
b0 X
b0 '
b0 K
b0 S
b0 a
b0 (
b0 ;
b0 b
1&
05
0-
b10 7
b10 ?
b10 I
b0 8
b0 9
b0 T
b110011 M
b0 =
b1000 `
b0 ^
b0 ]
b0 G
b110011 H
b1000 0
b1000 B
b1000 O
b1000 R
b10000110011 1
b10000110011 N
b10000110011 Q
b10000 +
b10000 W
b10000 [
b10000 )
b10000 E
b10000 U
b10100 3
b10100 A
b10100 V
b1100 *
b1100 C
b1100 F
b1100 P
b1100 \
1!
#40
0!
#45
b0 0
b0 B
b0 O
b0 R
15
b0 7
b0 ?
b0 I
b10011 M
b101 `
b10011 H
b1010010011 1
b1010010011 N
b1010010011 Q
b10100 +
b10100 W
b10100 [
b10100 )
b10100 E
b10100 U
b10000 3
b10000 A
b10000 V
b10000 *
b10000 C
b10000 F
b10000 P
b10000 \
1!
#50
0!
#55
b1 %
b1 Z
b1 _
b1 6
b1 <
b1 J
b1 X
b10 4
b10 :
b10 @
b10 7
b10 ?
b10 I
0$
b111 8
b111 9
b111 T
b10 =
b110 `
b111 ^
b101 ]
b10 G
b111 0
b111 B
b111 O
b111 R
b11100101010001100010011 1
b11100101010001100010011 N
b11100101010001100010011 Q
b11000 +
b11000 W
b11000 [
b11000 )
b11000 E
b11000 U
b11011 3
b11011 A
b11011 V
b10100 *
b10100 C
b10100 F
b10100 P
b10100 \
1!
#60
0!
#65
b1 4
b1 :
b1 @
b1 (
b1 ;
b1 b
0&
05
b1 7
b1 ?
b1 I
12
0$
b0 8
b0 9
b0 T
b1100011 M
b0 =
b1100 `
b0 ^
b110 ]
b0 G
b1100011 H
b1100 0
b1100 B
b1100 O
b1100 R
b110000011001100011 1
b110000011001100011 N
b110000011001100011 Q
b11100 +
b11100 W
b11100 [
b11100 )
b11100 E
b11100 U
b100100 3
b100100 A
b100100 V
b11000 *
b11000 C
b11000 F
b11000 P
b11000 \
1!
#70
0!
#75
b1 8
b1 9
b1 T
b0 4
b0 :
b0 @
0$
b0 (
b0 ;
b0 b
1&
15
02
b0 7
b0 ?
b0 I
b10011 M
b101 `
b1 ^
b101 ]
b10011 H
b1 0
b1 B
b1 O
b1 R
b100101000001010010011 1
b100101000001010010011 N
b100101000001010010011 Q
b100000 +
b100000 W
b100000 [
b100000 )
b100000 E
b100000 U
b11101 3
b11101 A
b11101 V
b11100 *
b11100 C
b11100 F
b11100 P
b11100 \
1!
#80
0!
#85
1#
b1 4
b1 :
b1 @
0&
05
b1 7
b1 ?
b1 I
12
b0 8
b0 9
b0 T
b0 %
b0 Z
b0 _
b1100011 M
1>
b10101 `
b0 ^
b0 ]
b1100011 H
b11111111111111111111111111110100 0
b11111111111111111111111111110100 B
b11111111111111111111111111110100 O
b11111111111111111111111111110100 R
b0 6
b0 <
b0 J
b0 X
b11111110000000000000101011100011 1
b11111110000000000000101011100011 N
b11111110000000000000101011100011 Q
b10100 +
b10100 W
b10100 [
1$
b0 (
b0 ;
b0 b
b100100 )
b100100 E
b100100 U
b10100 3
b10100 A
b10100 V
b100000 *
b100000 C
b100000 F
b100000 P
b100000 \
1!
#90
0!
#95
b1 %
b1 Z
b1 _
b1 6
b1 <
b1 J
b1 X
b111 8
b111 9
b111 T
0#
b10 4
b10 :
b10 @
0$
b1 (
b1 ;
b1 b
1&
15
02
b10 7
b10 ?
b10 I
b10011 M
b10 =
0>
b110 `
b111 ^
b101 ]
b10 G
b10011 H
b111 0
b111 B
b111 O
b111 R
b11100101010001100010011 1
b11100101010001100010011 N
b11100101010001100010011 Q
b11000 +
b11000 W
b11000 [
b11000 )
b11000 E
b11000 U
b11011 3
b11011 A
b11011 V
b10100 *
b10100 C
b10100 F
b10100 P
b10100 \
1!
#100
0!
#105
b1 4
b1 :
b1 @
0&
05
b1 7
b1 ?
b1 I
12
b0 8
b0 9
b0 T
b1100011 M
b0 =
b1100 `
b0 ^
b110 ]
b0 G
b1100011 H
b1100 0
b1100 B
b1100 O
b1100 R
b110000011001100011 1
b110000011001100011 N
b110000011001100011 Q
b11100 +
b11100 W
b11100 [
b11100 )
b11100 E
b11100 U
b100100 3
b100100 A
b100100 V
b11000 *
b11000 C
b11000 F
b11000 P
b11000 \
1!
#110
0!
#115
b10 %
b10 Z
b10 _
b10 6
b10 <
b10 J
b10 X
1$
b1 8
b1 9
b1 T
b0 4
b0 :
b0 @
1&
15
02
b0 7
b0 ?
b0 I
b10011 M
b101 `
b1 ^
b101 ]
b10011 H
b1 0
b1 B
b1 O
b1 R
b100101000001010010011 1
b100101000001010010011 N
b100101000001010010011 Q
b100000 +
b100000 W
b100000 [
b100000 )
b100000 E
b100000 U
b11101 3
b11101 A
b11101 V
b11100 *
b11100 C
b11100 F
b11100 P
b11100 \
1!
#120
0!
#125
1#
b1 4
b1 :
b1 @
0&
05
b1 7
b1 ?
b1 I
12
b0 8
b0 9
b0 T
b0 %
b0 Z
b0 _
b1100011 M
1>
b10101 `
b0 ^
b0 ]
b1100011 H
b11111111111111111111111111110100 0
b11111111111111111111111111110100 B
b11111111111111111111111111110100 O
b11111111111111111111111111110100 R
b0 6
b0 <
b0 J
b0 X
b11111110000000000000101011100011 1
b11111110000000000000101011100011 N
b11111110000000000000101011100011 Q
b10100 +
b10100 W
b10100 [
1$
b0 (
b0 ;
b0 b
b100100 )
b100100 E
b100100 U
b10100 3
b10100 A
b10100 V
b100000 *
b100000 C
b100000 F
b100000 P
b100000 \
1!
#130
0!
#135
b1 %
b1 Z
b1 _
b1 6
b1 <
b1 J
b1 X
b111 8
b111 9
b111 T
0#
b10 4
b10 :
b10 @
0$
b10 (
b10 ;
b10 b
1&
15
02
b10 7
b10 ?
b10 I
b10011 M
b10 =
0>
b110 `
b111 ^
b101 ]
b10 G
b10011 H
b111 0
b111 B
b111 O
b111 R
b11100101010001100010011 1
b11100101010001100010011 N
b11100101010001100010011 Q
b11000 +
b11000 W
b11000 [
b11000 )
b11000 E
b11000 U
b11011 3
b11011 A
b11011 V
b10100 *
b10100 C
b10100 F
b10100 P
b10100 \
1!
#140
0!
#145
b1 4
b1 :
b1 @
b1 (
b1 ;
b1 b
0&
05
b1 7
b1 ?
b1 I
12
b0 8
b0 9
b0 T
b1100011 M
b0 =
b1100 `
b0 ^
b110 ]
b0 G
b1100011 H
b1100 0
b1100 B
b1100 O
b1100 R
b110000011001100011 1
b110000011001100011 N
b110000011001100011 Q
b11100 +
b11100 W
b11100 [
b11100 )
b11100 E
b11100 U
b100100 3
b100100 A
b100100 V
b11000 *
b11000 C
b11000 F
b11000 P
b11000 \
1!
#150
0!
#155
b11 %
b11 Z
b11 _
b11 6
b11 <
b11 J
b11 X
b1 8
b1 9
b1 T
b0 4
b0 :
b0 @
b10 (
b10 ;
b10 b
1&
15
02
b0 7
b0 ?
b0 I
b10011 M
b101 `
b1 ^
b101 ]
b10011 H
b1 0
b1 B
b1 O
b1 R
b100101000001010010011 1
b100101000001010010011 N
b100101000001010010011 Q
b100000 +
b100000 W
b100000 [
b100000 )
b100000 E
b100000 U
b11101 3
b11101 A
b11101 V
b11100 *
b11100 C
b11100 F
b11100 P
b11100 \
1!
#160
0!
#165
1#
1$
b1 4
b1 :
b1 @
0&
05
b1 7
b1 ?
b1 I
12
b0 8
b0 9
b0 T
b0 %
b0 Z
b0 _
b1100011 M
1>
b10101 `
b0 ^
b0 ]
b1100011 H
b11111111111111111111111111110100 0
b11111111111111111111111111110100 B
b11111111111111111111111111110100 O
b11111111111111111111111111110100 R
b0 6
b0 <
b0 J
b0 X
b11111110000000000000101011100011 1
b11111110000000000000101011100011 N
b11111110000000000000101011100011 Q
b10100 +
b10100 W
b10100 [
b0 (
b0 ;
b0 b
b100100 )
b100100 E
b100100 U
b10100 3
b10100 A
b10100 V
b100000 *
b100000 C
b100000 F
b100000 P
b100000 \
1!
#170
0!
#175
b1 %
b1 Z
b1 _
b1 6
b1 <
b1 J
b1 X
b111 8
b111 9
b111 T
0#
b10 4
b10 :
b10 @
0$
b11 (
b11 ;
b11 b
1&
15
02
b10 7
b10 ?
b10 I
b10011 M
b10 =
0>
b110 `
b111 ^
b101 ]
b10 G
b10011 H
b111 0
b111 B
b111 O
b111 R
b11100101010001100010011 1
b11100101010001100010011 N
b11100101010001100010011 Q
b11000 +
b11000 W
b11000 [
b11000 )
b11000 E
b11000 U
b11011 3
b11011 A
b11011 V
b10100 *
b10100 C
b10100 F
b10100 P
b10100 \
1!
#180
0!
#185
b1 4
b1 :
b1 @
b1 (
b1 ;
b1 b
0&
05
b1 7
b1 ?
b1 I
12
b0 8
b0 9
b0 T
b1100011 M
b0 =
b1100 `
b0 ^
b110 ]
b0 G
b1100011 H
b1100 0
b1100 B
b1100 O
b1100 R
b110000011001100011 1
b110000011001100011 N
b110000011001100011 Q
b11100 +
b11100 W
b11100 [
b11100 )
b11100 E
b11100 U
b100100 3
b100100 A
b100100 V
b11000 *
b11000 C
b11000 F
b11000 P
b11000 \
1!
#190
0!
#195
b100 %
b100 Z
b100 _
b100 6
b100 <
b100 J
b100 X
b1 8
b1 9
b1 T
b0 4
b0 :
b0 @
b11 (
b11 ;
b11 b
1&
15
02
b0 7
b0 ?
b0 I
b10011 M
b101 `
b1 ^
b101 ]
b10011 H
b1 0
b1 B
b1 O
b1 R
b100101000001010010011 1
b100101000001010010011 N
b100101000001010010011 Q
b100000 +
b100000 W
b100000 [
b100000 )
b100000 E
b100000 U
b11101 3
b11101 A
b11101 V
b11100 *
b11100 C
b11100 F
b11100 P
b11100 \
1!
#200
0!
#205
1#
1$
b1 4
b1 :
b1 @
0&
05
b1 7
b1 ?
b1 I
12
b0 8
b0 9
b0 T
b0 %
b0 Z
b0 _
b1100011 M
1>
b10101 `
b0 ^
b0 ]
b1100011 H
b11111111111111111111111111110100 0
b11111111111111111111111111110100 B
b11111111111111111111111111110100 O
b11111111111111111111111111110100 R
b0 6
b0 <
b0 J
b0 X
b11111110000000000000101011100011 1
b11111110000000000000101011100011 N
b11111110000000000000101011100011 Q
b10100 +
b10100 W
b10100 [
b0 (
b0 ;
b0 b
b100100 )
b100100 E
b100100 U
b10100 3
b10100 A
b10100 V
b100000 *
b100000 C
b100000 F
b100000 P
b100000 \
1!
#210
0!
#215
b1 %
b1 Z
b1 _
b1 6
b1 <
b1 J
b1 X
b111 8
b111 9
b111 T
0#
b10 4
b10 :
b10 @
0$
b100 (
b100 ;
b100 b
1&
15
02
b10 7
b10 ?
b10 I
b10011 M
b10 =
0>
b110 `
b111 ^
b101 ]
b10 G
b10011 H
b111 0
b111 B
b111 O
b111 R
b11100101010001100010011 1
b11100101010001100010011 N
b11100101010001100010011 Q
b11000 +
b11000 W
b11000 [
b11000 )
b11000 E
b11000 U
b11011 3
b11011 A
b11011 V
b10100 *
b10100 C
b10100 F
b10100 P
b10100 \
1!
#220
0!
#225
b1 4
b1 :
b1 @
b1 (
b1 ;
b1 b
0&
05
b1 7
b1 ?
b1 I
12
b0 8
b0 9
b0 T
b1100011 M
b0 =
b1100 `
b0 ^
b110 ]
b0 G
b1100011 H
b1100 0
b1100 B
b1100 O
b1100 R
b110000011001100011 1
b110000011001100011 N
b110000011001100011 Q
b11100 +
b11100 W
b11100 [
b11100 )
b11100 E
b11100 U
b100100 3
b100100 A
b100100 V
b11000 *
b11000 C
b11000 F
b11000 P
b11000 \
1!
#230
0!
#235
b101 %
b101 Z
b101 _
b101 6
b101 <
b101 J
b101 X
b1 8
b1 9
b1 T
b0 4
b0 :
b0 @
b100 (
b100 ;
b100 b
1&
15
02
b0 7
b0 ?
b0 I
b10011 M
b101 `
b1 ^
b101 ]
b10011 H
b1 0
b1 B
b1 O
b1 R
b100101000001010010011 1
b100101000001010010011 N
b100101000001010010011 Q
b100000 +
b100000 W
b100000 [
b100000 )
b100000 E
b100000 U
b11101 3
b11101 A
b11101 V
b11100 *
b11100 C
b11100 F
b11100 P
b11100 \
1!
#240
0!
#245
1#
1$
b1 4
b1 :
b1 @
0&
05
b1 7
b1 ?
b1 I
12
b0 8
b0 9
b0 T
b0 %
b0 Z
b0 _
b1100011 M
1>
b10101 `
b0 ^
b0 ]
b1100011 H
b11111111111111111111111111110100 0
b11111111111111111111111111110100 B
b11111111111111111111111111110100 O
b11111111111111111111111111110100 R
b0 6
b0 <
b0 J
b0 X
b11111110000000000000101011100011 1
b11111110000000000000101011100011 N
b11111110000000000000101011100011 Q
b10100 +
b10100 W
b10100 [
b0 (
b0 ;
b0 b
b100100 )
b100100 E
b100100 U
b10100 3
b10100 A
b10100 V
b100000 *
b100000 C
b100000 F
b100000 P
b100000 \
1!
#250
0!
#255
b1 %
b1 Z
b1 _
b1 6
b1 <
b1 J
b1 X
b111 8
b111 9
b111 T
0#
b10 4
b10 :
b10 @
0$
b101 (
b101 ;
b101 b
1&
15
02
b10 7
b10 ?
b10 I
b10011 M
b10 =
0>
b110 `
b111 ^
b101 ]
b10 G
b10011 H
b111 0
b111 B
b111 O
b111 R
b11100101010001100010011 1
b11100101010001100010011 N
b11100101010001100010011 Q
b11000 +
b11000 W
b11000 [
b11000 )
b11000 E
b11000 U
b11011 3
b11011 A
b11011 V
b10100 *
b10100 C
b10100 F
b10100 P
b10100 \
1!
#260
0!
#265
b1 4
b1 :
b1 @
b1 (
b1 ;
b1 b
0&
05
b1 7
b1 ?
b1 I
12
b0 8
b0 9
b0 T
b1100011 M
b0 =
b1100 `
b0 ^
b110 ]
b0 G
b1100011 H
b1100 0
b1100 B
b1100 O
b1100 R
b110000011001100011 1
b110000011001100011 N
b110000011001100011 Q
b11100 +
b11100 W
b11100 [
b11100 )
b11100 E
b11100 U
b100100 3
b100100 A
b100100 V
b11000 *
b11000 C
b11000 F
b11000 P
b11000 \
1!
#270
0!
#275
b110 %
b110 Z
b110 _
b110 6
b110 <
b110 J
b110 X
b1 8
b1 9
b1 T
b0 4
b0 :
b0 @
b101 (
b101 ;
b101 b
1&
15
02
b0 7
b0 ?
b0 I
b10011 M
b101 `
b1 ^
b101 ]
b10011 H
b1 0
b1 B
b1 O
b1 R
b100101000001010010011 1
b100101000001010010011 N
b100101000001010010011 Q
b100000 +
b100000 W
b100000 [
b100000 )
b100000 E
b100000 U
b11101 3
b11101 A
b11101 V
b11100 *
b11100 C
b11100 F
b11100 P
b11100 \
1!
#280
0!
#285
1#
1$
b1 4
b1 :
b1 @
0&
05
b1 7
b1 ?
b1 I
12
b0 8
b0 9
b0 T
b0 %
b0 Z
b0 _
b1100011 M
1>
b10101 `
b0 ^
b0 ]
b1100011 H
b11111111111111111111111111110100 0
b11111111111111111111111111110100 B
b11111111111111111111111111110100 O
b11111111111111111111111111110100 R
b0 6
b0 <
b0 J
b0 X
b11111110000000000000101011100011 1
b11111110000000000000101011100011 N
b11111110000000000000101011100011 Q
b10100 +
b10100 W
b10100 [
b0 (
b0 ;
b0 b
b100100 )
b100100 E
b100100 U
b10100 3
b10100 A
b10100 V
b100000 *
b100000 C
b100000 F
b100000 P
b100000 \
1!
#290
0!
#295
b1 %
b1 Z
b1 _
b1 6
b1 <
b1 J
b1 X
b111 8
b111 9
b111 T
0#
b10 4
b10 :
b10 @
0$
b110 (
b110 ;
b110 b
1&
15
02
b10 7
b10 ?
b10 I
b10011 M
b10 =
0>
b110 `
b111 ^
b101 ]
b10 G
b10011 H
b111 0
b111 B
b111 O
b111 R
b11100101010001100010011 1
b11100101010001100010011 N
b11100101010001100010011 Q
b11000 +
b11000 W
b11000 [
b11000 )
b11000 E
b11000 U
b11011 3
b11011 A
b11011 V
b10100 *
b10100 C
b10100 F
b10100 P
b10100 \
1!
#300
0!
#305
b1 4
b1 :
b1 @
b1 (
b1 ;
b1 b
0&
05
b1 7
b1 ?
b1 I
12
b0 8
b0 9
b0 T
b1100011 M
b0 =
b1100 `
b0 ^
b110 ]
b0 G
b1100011 H
b1100 0
b1100 B
b1100 O
b1100 R
b110000011001100011 1
b110000011001100011 N
b110000011001100011 Q
b11100 +
b11100 W
b11100 [
b11100 )
b11100 E
b11100 U
b100100 3
b100100 A
b100100 V
b11000 *
b11000 C
b11000 F
b11000 P
b11000 \
1!
#310
0!
#315
b111 %
b111 Z
b111 _
b111 6
b111 <
b111 J
b111 X
b1 8
b1 9
b1 T
b0 4
b0 :
b0 @
b110 (
b110 ;
b110 b
1&
15
02
b0 7
b0 ?
b0 I
b10011 M
b101 `
b1 ^
b101 ]
b10011 H
b1 0
b1 B
b1 O
b1 R
b100101000001010010011 1
b100101000001010010011 N
b100101000001010010011 Q
b100000 +
b100000 W
b100000 [
b100000 )
b100000 E
b100000 U
b11101 3
b11101 A
b11101 V
b11100 *
b11100 C
b11100 F
b11100 P
b11100 \
1!
#320
0!
#325
1#
1$
b1 4
b1 :
b1 @
0&
05
b1 7
b1 ?
b1 I
12
b0 8
b0 9
b0 T
b0 %
b0 Z
b0 _
b1100011 M
1>
b10101 `
b0 ^
b0 ]
b1100011 H
b11111111111111111111111111110100 0
b11111111111111111111111111110100 B
b11111111111111111111111111110100 O
b11111111111111111111111111110100 R
b0 6
b0 <
b0 J
b0 X
b11111110000000000000101011100011 1
b11111110000000000000101011100011 N
b11111110000000000000101011100011 Q
b10100 +
b10100 W
b10100 [
b0 (
b0 ;
b0 b
b100100 )
b100100 E
b100100 U
b10100 3
b10100 A
b10100 V
b100000 *
b100000 C
b100000 F
b100000 P
b100000 \
1!
#330
0!
#335
b111 8
b111 9
b111 T
0#
b10 4
b10 :
b10 @
1$
b111 (
b111 ;
b111 b
1&
15
02
b10 7
b10 ?
b10 I
b10011 M
b10 =
0>
b110 `
b111 ^
b101 ]
b10 G
b10011 H
b111 0
b111 B
b111 O
b111 R
b11100101010001100010011 1
b11100101010001100010011 N
b11100101010001100010011 Q
b11000 +
b11000 W
b11000 [
b11000 )
b11000 E
b11000 U
b11011 3
b11011 A
b11011 V
b10100 *
b10100 C
b10100 F
b10100 P
b10100 \
1!
#340
0!
#345
1#
b1 4
b1 :
b1 @
b0 (
b0 ;
b0 b
0&
05
b1 7
b1 ?
b1 I
12
1$
b0 8
b0 9
b0 T
b1100011 M
b0 =
b1100 `
b0 ^
b110 ]
b0 G
b1100011 H
b1100 0
b1100 B
b1100 O
b1100 R
b110000011001100011 1
b110000011001100011 N
b110000011001100011 Q
b100100 +
b100100 W
b100100 [
b11100 )
b11100 E
b11100 U
b100100 3
b100100 A
b100100 V
b11000 *
b11000 C
b11000 F
b11000 P
b11000 \
1!
#350
0!
#355
b1010 %
b1010 Z
b1010 _
b1010 6
b1010 <
b1010 J
b1010 X
0$
b1010 8
b1010 9
b1010 T
0#
b11 4
b11 :
b11 @
1&
15
02
b10 7
b10 ?
b10 I
b10011 M
b110 =
b110 `
b1010 ^
b110 G
b10011 H
b1010 0
b1010 B
b1010 O
b1010 R
b101000110110001100010011 1
b101000110110001100010011 N
b101000110110001100010011 Q
b101000 +
b101000 W
b101000 [
b101000 )
b101000 E
b101000 U
b101110 3
b101110 A
b101110 V
b100100 *
b100100 C
b100100 F
b100100 P
b100100 \
1!
#360
0!
#365
b10100011 %
b10100011 Z
b10100011 _
b10100011 /
b10100011 L
b10100011 Y
b1111100 6
b1111100 <
b1111100 J
b1111100 X
b0 4
b0 :
b0 @
b0 7
b0 ?
b0 I
1,
1.
b0 8
b0 9
b0 T
b11 M
b10 =
b1000 `
b0 ^
b10 ]
b10 G
b11 H
b0 0
b0 B
b0 O
b0 R
b10010010000000011 1
b10010010000000011 N
b10010010000000011 Q
b101100 +
b101100 W
b101100 [
0$
b1111100 (
b1111100 ;
b1111100 b
b101100 )
b101100 E
b101100 U
b101000 3
b101000 A
b101000 V
b101000 *
b101000 C
b101000 F
b101000 P
b101000 \
1!
#370
0!
#375
b10000000 %
b10000000 Z
b10000000 _
b0 /
b0 L
b0 Y
b10000000 6
b10000000 <
b10000000 J
b10000000 X
0,
0.
b100 8
b100 9
b100 T
b10011 M
b0 =
b10 `
b100 ^
b0 G
b10011 H
b100 0
b100 B
b100 O
b100 R
b10000010000000100010011 1
b10000010000000100010011 N
b10000010000000100010011 Q
b110000 +
b110000 W
b110000 [
b110000 )
b110000 E
b110000 U
b110000 3
b110000 A
b110000 V
b101100 *
b101100 C
b101100 F
b101100 P
b101100 \
1!
#380
0!
#385
1$
0&
05
b0 8
b0 9
b0 T
b0 %
b0 Z
b0 _
b0 M
b0 `
b0 ^
b0 ]
b0 H
b0 0
b0 B
b0 O
b0 R
b0 6
b0 <
b0 J
b0 X
b0 1
b0 N
b0 Q
b110100 +
b110100 W
b110100 [
b0 (
b0 ;
b0 b
b110100 )
b110100 E
b110100 U
b110000 3
b110000 A
b110000 V
b110000 *
b110000 C
b110000 F
b110000 P
b110000 \
1!
#390
0!
#395
bx %
bx Z
bx _
bx 8
bx 9
bx T
bx 6
bx <
bx J
bx X
bx '
bx K
bx S
bx a
x$
bx (
bx ;
bx b
bx M
bx =
x>
bx `
bx ^
bx ]
bx G
bx H
bx 1
bx N
bx Q
b111000 +
b111000 W
b111000 [
b111000 )
b111000 E
b111000 U
b110100 3
b110100 A
b110100 V
b110100 *
b110100 C
b110100 F
b110100 P
b110100 \
1!
#400
0!
#405
b111100 +
b111100 W
b111100 [
b111100 )
b111100 E
b111100 U
b111000 3
b111000 A
b111000 V
b111000 *
b111000 C
b111000 F
b111000 P
b111000 \
1!
#410
0!
#415
b1000000 +
b1000000 W
b1000000 [
b1000000 )
b1000000 E
b1000000 U
b111100 3
b111100 A
b111100 V
b111100 *
b111100 C
b111100 F
b111100 P
b111100 \
1!
#420
0!
#425
b1000100 +
b1000100 W
b1000100 [
b1000100 )
b1000100 E
b1000100 U
b1000000 3
b1000000 A
b1000000 V
b1000000 *
b1000000 C
b1000000 F
b1000000 P
b1000000 \
1!
#430
0!
#435
b1001000 +
b1001000 W
b1001000 [
b1001000 )
b1001000 E
b1001000 U
b1000100 3
b1000100 A
b1000100 V
b1000100 *
b1000100 C
b1000100 F
b1000100 P
b1000100 \
1!
#440
0!
#445
b1001100 +
b1001100 W
b1001100 [
b1001100 )
b1001100 E
b1001100 U
b1001000 3
b1001000 A
b1001000 V
b1001000 *
b1001000 C
b1001000 F
b1001000 P
b1001000 \
1!
#450
0!
#455
b1010000 +
b1010000 W
b1010000 [
b1010000 )
b1010000 E
b1010000 U
b1001100 3
b1001100 A
b1001100 V
b1001100 *
b1001100 C
b1001100 F
b1001100 P
b1001100 \
1!
#460
0!
#465
b1010100 +
b1010100 W
b1010100 [
b1010100 )
b1010100 E
b1010100 U
b1010000 3
b1010000 A
b1010000 V
b1010000 *
b1010000 C
b1010000 F
b1010000 P
b1010000 \
1!
#470
0!
#475
b1011000 +
b1011000 W
b1011000 [
b1011000 )
b1011000 E
b1011000 U
b1010100 3
b1010100 A
b1010100 V
b1010100 *
b1010100 C
b1010100 F
b1010100 P
b1010100 \
1!
#480
0!
#485
b1011100 +
b1011100 W
b1011100 [
b1011100 )
b1011100 E
b1011100 U
b1011000 3
b1011000 A
b1011000 V
b1011000 *
b1011000 C
b1011000 F
b1011000 P
b1011000 \
1!
#490
0!
#495
b1100000 +
b1100000 W
b1100000 [
b1100000 )
b1100000 E
b1100000 U
b1011100 3
b1011100 A
b1011100 V
b1011100 *
b1011100 C
b1011100 F
b1011100 P
b1011100 \
1!
#500
0!
